{
  "user": {
    "removed": {
      "description": "removedSuccessfully"
    },
    "blocked": {
      "description": "User successfully blocked"
    },
    "unlocked": {
      "description": "User successfully unblocked"
    },
    "invitationSent": {
      "description": "User successfully invited"
    },
    "friendAdded": {
      "description": "Friend successfully added"
    },
    "unfriended": {
      "description": "User successfully removed from friends"
    },
    "inviteAsDogOwnedSent": {
      "description" : "Invitation to become dog owner was successfully sent"
    },
    "notificationsUpdated": {
      "description" : "Notifications updated successfully"
    }
  },
  "chats": {
    "leaved": {
      "description": "leaved"
    },
    "removed": {
      "description": "removed"
    },
    "leavedAndRemoved": {
      "description": "leavedAndRemoved"
    },
    "joinDateReset": {
      "description": "Join date successfully reset"
    },
    "exitDateSet": {
      "description": "Exit date successfully set"
    }
  },
  "hangouts": {
    "sent": {
      "description": "Hangouts successfully sent"
    }
  },
  "complaints": {
    "user": {
      "description": "Complaint on user successfully sent"
    },
    "image": {
      "description": "Complaint on image successfully sent"
    }
  }
}